<svg width="20" height="20" viewBox="0 0 20 20" fill="none" xmlns="http://www.w3.org/2000/svg">
<path d="M5 9L10.5 15L16 9H13.25V5H7.75V9H5Z" stroke="#477FFF" stroke-linecap="round" stroke-linejoin="round"/>
<path d="M14 3H7" stroke="#477FFF" stroke-linecap="round" stroke-linejoin="round"/>
</svg>
