[
    {
        "date": "05 Oct 2021",
        "location": "Apt. Green Bay Pluit Tower A",
        "inbound": "22",
        "outbound": "10",
        "totalPacket": "32",
        "size": {
            "s": 10,
            "m": 10,
            "l": 10,
            "xl": 2
        },
        "income": 100000
    },
    {
        "date": "05 Oct 2021",
        "location": "Apt. Green Bay Pluit Tower B",
        "inbound": "22",
        "outbound": "10",
        "totalPacket": "32",
        "size": {
            "s": 10,
            "m": 10,
            "l": 10,
            "xl": 2
        },
        "income": 100000
    },
    {
        "date": "05 Oct 2021",
        "location": "Apt. Green Bay Pluit Tower C",
        "inbound": "22",
        "outbound": "10",
        "totalPacket": "32",
        "size": {
            "s": 10,
            "m": 10,
            "l": 10,
            "xl": 2
        },
        "income": 100000
    },
    {
        "date": "05 Oct 2021",
        "location": "Apt. Green Bay Pluit Tower D",
        "inbound": "22",
        "outbound": "10",
        "totalPacket": "32",
        "size": {
            "s": 10,
            "m": 10,
            "l": 10,
            "xl": 2
        },
        "income": 100000
    },
    {
        "date": "05 Oct 2021",
        "location": "Apt. Green Bay Pluit Tower E",
        "inbound": "22",
        "outbound": "10",
        "totalPacket": "32",
        "size": {
            "s": 10,
            "m": 10,
            "l": 10,
            "xl": 2
        },
        "income": 100000
    },
    {
        "date": "05 Oct 2021",
        "location": "Apt. Green Bay Pluit Tower F",
        "inbound": "22",
        "outbound": "10",
        "totalPacket": "32",
        "size": {
            "s": 10,
            "m": 10,
            "l": 10,
            "xl": 2
        },
        "income": 100000
    },
    {
        "date": "05 Oct 2021",
        "location": "Apt. Green Bay Pluit Tower G",
        "inbound": "22",
        "outbound": "10",
        "totalPacket": "32",
        "size": {
            "s": 10,
            "m": 10,
            "l": 10,
            "xl": 2
        },
        "income": 100000
    },
    {
        "date": "05 Oct 2021",
        "location": "Apt. Green Bay Pluit Tower H",
        "inbound": "22",
        "outbound": "10",
        "totalPacket": "32",
        "size": {
            "s": 10,
            "m": 10,
            "l": 10,
            "xl": 2
        },
        "income": 100000
    }
]